[{
	"nombre": "Linea 1",
	"estaActiva":true
},
{
	"nombre": "Linea 2",
	"estaActiva":true
},
{
	"nombre": "Linea 3",
	"estaActiva":true
},
{
	"nombre": "Linea 4",
	"estaActiva":true
},
{
	"nombre": "Linea 5",
	"estaActiva":true
}]